{ 
    "_id" : "3gnmrr5HyszSeRPdY", 
    "number" : NumberInt(1), 
    "name" : "Екатерина С.", 
    "location" : "Ростовская область", 
    "image" : "01.png", 
    "url" : "http://changeonelife.ru/videopassports/ekaterina-s-rostovskaya-oblast/", 
    "pulse" : "pulse_sm.svg"
}
{ 
    "_id" : "6AoW7NyFQWMowCk2k", 
    "number" : NumberInt(2), 
    "name" : "Евгений М.", 
    "location" : "Хабаровский край", 
    "url" : "http://changeonelife.ru/videopassports/evgenij-m-habarovskij-kraj-3/", 
    "image" : "02.png", 
    "pulse" : "pulse_st.svg"
}
{ 
    "_id" : "BN3seyrBYk9pRE3Lq", 
    "number" : NumberInt(3), 
    "name" : "Виктория К.", 
    "location" : "Республика Северная Осетия — Алания", 
    "url" : "http://changeonelife.ru/videopassports/viktoriya-k-respublika-severnaya-osetiya-alaniya/", 
    "image" : "03.png", 
    "pulse" : "pulse_sm.svg"
}
{ 
    "_id" : "R2MiYWeEHCTJw4iMR", 
    "number" : NumberInt(4), 
    "name" : "Евгений К.", 
    "location" : "Республика Башкортостан", 
    "url" : "http://changeonelife.ru/videopassports/evgenij-k-respublika-bashkortostan/", 
    "image" : "04.png", 
    "pulse" : "pulse_st.svg"
}
{ 
    "_id" : "vdNxyfNdqmiPYLzaE", 
    "number" : NumberInt(5), 
    "name" : "Елизавета Т.", 
    "location" : "Вологодская область", 
    "url" : "http://changeonelife.ru/videopassports/elizaveta-t-vologodskaya-oblast/", 
    "image" : "05.png", 
    "pulse" : "pulse_sm.svg"
}
{ 
    "_id" : "fcqNDFj7kpwqa9XN8", 
    "number" : NumberInt(6), 
    "name" : "Владимир П.", 
    "location" : "Забайкальский край", 
    "url" : "http://changeonelife.ru/videopassports/vladimir-p-zabajkal-skij-kraj/", 
    "image" : "06.png", 
    "pulse" : "pulse_sm.svg"
}
{ 
    "_id" : "3oCFcXDDjD5QL89BT", 
    "number" : NumberInt(7), 
    "name" : "Марина Г.", 
    "location" : "Республика Башкортостан", 
    "url" : "http://changeonelife.ru/videopassports/marina-g-respublika-bashkortostan/", 
    "image" : "07.png", 
    "pulse" : "pulse_sm.svg"
}
{ 
    "_id" : "XhtaMSppkgNSGMwXA", 
    "number" : NumberInt(8), 
    "name" : "Илья З.", 
    "location" : "Хабаровский край", 
    "url" : "http://changeonelife.ru/videopassports/il-ya-z-habarovskij-kraj-2/", 
    "image" : "08.png", 
    "pulse" : "pulse_st.svg"
}
{ 
    "_id" : "YgfBdDdwQgfwfunQ8", 
    "number" : NumberInt(9), 
    "name" : "Эвелина Ш.", 
    "location" : "Кировская область", 
    "url" : "http://changeonelife.ru/videopassports/e-velina-sh-kirovskaya-oblast/", 
    "image" : "09.png", 
    "pulse" : "pulse_sm.svg"
}
{ 
    "_id" : "XLPBFYQNntZvJmQfw", 
    "number" : NumberInt(10), 
    "name" : "Максим О.", 
    "location" : "Иркутская область", 
    "url" : "http://changeonelife.ru/videopassports/maksim-o-irkutskaya-oblast-2/", 
    "image" : "10.png", 
    "pulse" : "pulse_sm.svg"
}
