{ 
    "_id" : "mhFLAW3xRPEHBmkeH", 
    "createdAt" : ISODate("2016-12-07T06:10:22.756+0000"), 
    "services" : {
        "password" : {
            "bcrypt" : "$2a$10$dW6gtIZtpMS5h94UB/yrR.4e4r7a8.kol896CDPIfjH8CI0wSRbWu"
        }, 
        "resume" : {
            "loginTokens" : [
                {
                    "when" : ISODate("2017-04-10T02:22:55.401+0000"), 
                    "hashedToken" : "jC2XkxDmkfNW1uV8Y0WRbqUkYl88XwF3/y/ToID/M78="
                }, 
                {
                    "when" : ISODate("2017-04-10T02:23:02.908+0000"), 
                    "hashedToken" : "gtUDeSDsY7ps9/c9YeU/7HeBf1QIGwn6ZW8R+pgRqy4="
                }, 
                {
                    "when" : ISODate("2017-04-10T02:23:03.677+0000"), 
                    "hashedToken" : "Q4G9Qod03SOphCE5z3y4DGoYxn8C9Z1hyUoI0DdLXqk="
                }
            ]
        }
    }, 
    "emails" : [
        {
            "address" : "hello@mieta.io", 
            "verified" : false
        }
    ], 
    "profile" : {
        "name" : {
            "first" : "Kirill", 
            "last" : "Ninua"
        }
    }
}
